{
  "Comment.nvim": { "branch": "master", "commit": "e30b7f2008e52442154b66f7c519bfd2f1e32acb" },
  "FTerm.nvim": { "branch": "master", "commit": "d1320892cc2ebab472935242d9d992a2c9570180" },
  "FixCursorHold.nvim": { "branch": "master", "commit": "1900f89dc17c603eec29960f57c00bd9ae696495" },
  "LuaSnip": { "branch": "master", "commit": "03c8e67eb7293c404845b3982db895d59c0d1538" },
  "calendar-vim": { "branch": "master", "commit": "a7e73e02c92566bf427b2a1d6a61a8f23542cc21" },
  "ccc.nvim": { "branch": "main", "commit": "b57cbaf8db3ac43c56c9e2c7f3812944638260ed" },
  "cheat-sh-nvim": { "branch": "fix_getn", "commit": "fc280e3473afd7add7e0861c3ae814f60bd8afbb" },
  "cmp-buffer": { "branch": "main", "commit": "3022dbc9166796b644a841a02de8dd1cc1d311fa" },
  "cmp-cmdline": { "branch": "main", "commit": "d250c63aa13ead745e3a40f61fdd3470efde3923" },
  "cmp-dap": { "branch": "master", "commit": "ea92773e84c0ad3288c3bc5e452ac91559669087" },
  "cmp-dotenv": { "branch": "main", "commit": "4dd53aab60982f1f75848aec5e6214986263325e" },
  "cmp-emoji": { "branch": "main", "commit": "e8398e2adf512a03bb4e1728ca017ffeac670a9f" },
  "cmp-look": { "branch": "master", "commit": "971e65a6be0e75c3438fe7b176d4fc020cb89d7b" },
  "cmp-nvim-lsp": { "branch": "main", "commit": "99290b3ec1322070bcfb9e846450a46f6efa50f0" },
  "cmp-nvim-lsp-signature-help": { "branch": "main", "commit": "031e6ba70b0ad5eee49fd2120ff7a2e325b17fa7" },
  "cmp-nvim-lua": { "branch": "main", "commit": "f12408bdb54c39c23e67cab726264c10db33ada8" },
  "cmp-path": { "branch": "main", "commit": "91ff86cd9c29299a64f968ebb45846c485725f23" },
  "cmp-under-comparator": { "branch": "master", "commit": "6857f10272c3cfe930cece2afa2406e1385bfef8" },
  "cmp_luasnip": { "branch": "master", "commit": "98d9cb5c2c38532bd9bdb481067b20fea8f32e90" },
  "competitest.nvim": { "branch": "master", "commit": "e397635d212605a3fa0e2d06f3e6209085189e3f" },
  "diffview.nvim": { "branch": "main", "commit": "4516612fe98ff56ae0415a259ff6361a89419b0a" },
  "dressing.nvim": { "branch": "master", "commit": "2d7c2db2507fa3c4956142ee607431ddb2828639" },
  "dropbar.nvim": { "branch": "master", "commit": "807ddc72457907a4d7e385cec0aa25648ee60a58" },
  "emmet-vim": { "branch": "master", "commit": "6c511a8d7d2863066f32e25543e2bb99d505172c" },
  "faster.nvim": { "branch": "main", "commit": "c3a5286765b43263791eb736affeb6fdff81e4ef" },
  "flash.nvim": { "branch": "main", "commit": "3c942666f115e2811e959eabbdd361a025db8b63" },
  "formatter.nvim": { "branch": "sql_formatter", "commit": "7e6c29564459ba58a005b6541940c49e75d2f6bd" },
  "friendly-snippets": { "branch": "main", "commit": "efff286dd74c22f731cdec26a70b46e5b203c619" },
  "garbage-day.nvim": { "branch": "main", "commit": "750ef08ae6031ee3683014c5349144340c08ead6" },
  "goto-preview": { "branch": "main", "commit": "0ff941433a8c91ea7d07eda9c9277cc6161ee2c1" },
  "harpoon": { "branch": "harpoon2", "commit": "ed1f853847ffd04b2b61c314865665e1dadf22c7" },
  "knap": { "branch": "main", "commit": "7db44d0bb760120142cc1e8f43e44976de59c2f6" },
  "lazy.nvim": { "branch": "main", "commit": "6c3bda4aca61a13a9c63f1c1d1b16b9d3be90d7a" },
  "limelight.vim": { "branch": "master", "commit": "0c8cc7f503a775c505dc9c67f1f5041ab4d5f1fd" },
  "lspkind-nvim": { "branch": "master", "commit": "d79a1c3299ad0ef94e255d045bed9fa26025dab6" },
  "mason-lspconfig.nvim": { "branch": "main", "commit": "1a31f824b9cd5bc6f342fc29e9a53b60d74af245" },
  "mason-nvim-dap.nvim": { "branch": "main", "commit": "09220b99d63d5363f219daa2785242ee5fddba7f" },
  "mason-tool-installer.nvim": { "branch": "main", "commit": "5639d58a3d11ff7c05c8e31e159bfedae55d7961" },
  "mason.nvim": { "branch": "main", "commit": "fc98833b6da5de5a9c5b1446ac541577059555be" },
  "nabla.nvim": { "branch": "master", "commit": "27a6ea9ed7452bb9e0b19eb0942b5bcf7d051b2f" },
  "neodev.nvim": { "branch": "main", "commit": "46aa467dca16cf3dfe27098042402066d2ae242d" },
  "neogit": { "branch": "master", "commit": "12f78aaabb37b4946254dd5e47cf7b552904937a" },
  "neotest": { "branch": "master", "commit": "dddbe8fe358b05b2b7e54fe4faab50563171a76d" },
  "noice.nvim": { "branch": "main", "commit": "0427460c2d7f673ad60eb02b35f5e9926cf67c59" },
  "nui.nvim": { "branch": "main", "commit": "53e907ffe5eedebdca1cd503b00aa8692068ca46" },
  "nvim-autopairs": { "branch": "master", "commit": "68f0e5c3dab23261a945272032ee6700af86227a" },
  "nvim-cmp": { "branch": "main", "commit": "c27370703e798666486e3064b64d59eaf4bdc6d5" },
  "nvim-dap": { "branch": "master", "commit": "379cf26e9c457b66a0152cd5d018418c03720d47" },
  "nvim-dap-ui": { "branch": "master", "commit": "bc81f8d3440aede116f821114547a476b082b319" },
  "nvim-dap-virtual-text": { "branch": "master", "commit": "df66808cd78b5a97576bbaeee95ed5ca385a9750" },
  "nvim-lint": { "branch": "master", "commit": "6e9dd545a1af204c4022a8fcd99727ea41ffdcc8" },
  "nvim-lspconfig": { "branch": "master", "commit": "8e8fd432f05b126a9dd1635e8022c7e7d1a04e60" },
  "nvim-nio": { "branch": "master", "commit": "21f5324bfac14e22ba26553caf69ec76ae8a7662" },
  "nvim-notify": { "branch": "master", "commit": "22f29093eae7785773ee9d543f8750348b1a195c" },
  "nvim-scissors": { "branch": "main", "commit": "12d9f282b67525bb766c6fe33317caf25a19c86a" },
  "nvim-spectre": { "branch": "master", "commit": "ddd7383e856a7c939cb4f5143278fe041bbb8cb9" },
  "nvim-surround": { "branch": "main", "commit": "ae298105122c87bbe0a36b1ad20b06d417c0433e" },
  "nvim-tmux-navigation": { "branch": "main", "commit": "4898c98702954439233fdaf764c39636681e2861" },
  "nvim-treesitter": { "branch": "master", "commit": "186f35e1684c241baf13a3e6092eee00ac48631e" },
  "nvim-treesitter-context": { "branch": "master", "commit": "198720b4016af04c9590f375d714d5bf8afecc1a" },
  "nvim-treesitter-textobjects": { "branch": "master", "commit": "ab0950c53d1ae04da8e488aa762b450d5241dca2" },
  "nvim-treesitter-textsubjects": { "branch": "master", "commit": "abcbb0e537c9c24800b03b9ca33bee5806604629" },
  "nvim-ts-autotag": { "branch": "main", "commit": "a1d526af391f6aebb25a8795cbc05351ed3620b5" },
  "nvim-web-devicons": { "branch": "master", "commit": "ab4cfee554e501f497bce0856788d43cf2eb93d7" },
  "octo.nvim": { "branch": "master", "commit": "f0ab209f269e76e56ab98dad237ddd0fdd332847" },
  "one-small-step-for-vimkind": { "branch": "main", "commit": "b9def31568d20b16f7da9479a4174d165046fe8a" },
  "otter.nvim": { "branch": "main", "commit": "13bc3f39c7febefc097b9bdc35a126d12de09058" },
  "plenary.nvim": { "branch": "master", "commit": "857c5ac632080dba10aae49dba902ce3abf91b35" },
  "rest-ui.nvim": { "branch": "main", "commit": "d4525bdba38096f2e4e8d2f45caaa13d869197f4" },
  "rest.nvim": { "branch": "main", "commit": "1ce984c694345f3801bc656072f9a8dd51286a04" },
  "telescope-file-structure.nvim": { "branch": "master", "commit": "5d71d455dc79648f98eff83a1cc8321d2d53bb66" },
  "telescope-fzf-native.nvim": { "branch": "main", "commit": "2a5ceff981501cff8f46871d5402cd3378a8ab6a" },
  "telescope.nvim": { "branch": "0.1.x", "commit": "a0bbec21143c7bc5f8bb02e0005fa0b982edc026" },
  "thesaurus_query.vim": { "branch": "master", "commit": "92be7e003236f4d43b86ad1b84d092fceb982ed4" },
  "venn.nvim": { "branch": "main", "commit": "b09c2f36ddf70b498281845109bedcf08a7e0de0" },
  "vim-dadbod": { "branch": "master", "commit": "9f0ca8bcef704659820a95c3bbd2c262583a66a1" },
  "vim-dadbod-completion": { "branch": "master", "commit": "3f5783c12e184e4b6f05dfcbd7c1a6da05b4d66e" },
  "vim-dadbod-ui": { "branch": "master", "commit": "f4d37b7312ae6489e5c04bee654ca521baac188a" },
  "vim-sleuth": { "branch": "master", "commit": "be69bff86754b1aa5adcbb527d7fcd1635a84080" },
  "vim-snippets": { "branch": "master", "commit": "f0a3184d9f90b96b044d5914625a25c554d7f301" },
  "vim-sway-nav": { "branch": "master", "commit": "c92640b3242a719abe18f3a4800dc734e46bea36" },
  "vim-table-mode": { "branch": "master", "commit": "e4365bde024f73e205eefa2fb78e3029ddb92ea9" },
  "which-key.nvim": { "branch": "main", "commit": "370ec46f710e058c9c1646273e6b225acf47cbed" }
}
