1 40000052 0
2 40000051 0
10 77 0
11 73 0
22 20 s
23 20 0
24 4000004b 0
25 4000004e 0
30 61 s
31 64 s
32 77 s
33 73 s
35 72 c
36 6c c
41 400000e2 0
42 66 0
45 66 s
46 68 0
47 2e 0
50 64 c
51 6e s
55 64 sc
56 75 s
57 75 0
60 66 c
65 79 c
70 3d c
71 2d c
72 30 c
73 40000044 0
76 6f s
77 63 s
78 63 sc
79 74 sc
80 4000004b c
81 4000004e c
84 4000004b sc
85 4000004e sc
90 6a c
91 9 c
92 31 0
93 78 0
94 33 0
95 64 0
96 65 0
97 32 0
98 66 0
99 72 0
100 2f c
110 73 c
120 75 c
121 65 c
125 69 c
126 2c sc
130 76 sc
140 69 sc
200 40000043 0
205 2f 0
1004 4000003e 0
1005 4000010c 0
1006 4000010d 0
1007 4000010e 0
1008 4000010f 0
1009 40000110 0
1010 40000111 0
1011 40000112 0
